[
{"cedula":1315661725,"apellidos":"Toala Delgado","nombres":"Jesus Smir","semestre":"Quinto","paralelo":"B"},
{"cedula":1314343535,"apellidos":"Veliz Macias","nombres":"Angelo Maatu","semestre":"Cuarto","paralelo":"C"},
{"cedula":1315269595,"apellidos":"Mercedes Marin","nombres":"Luz Angela","semestre":"Primero","paralelo":"A"},
{"cedula":1315632029,"apellidos":"Padilla Mendoza","nombres":"Anthony Abad","semestre":"Cuarto","paralelo":"A"},
{"cedula":1315659856,"apellidos":"Marin Delgado","nombres":"Elian Joshue","semestre":"Segundo","paralelo":"B"},
{"cedula":1315931020,"apellidos":"Velez Cipriano","nombres":"Frank Alejo","semestre":"Primero","paralelo":"C"},
{"cedula":1319632189,"apellidos":"Tumbaco Soledispa","nombres":"Lider Garbiel","semestre":"Cuarto","paralelo":"A"},
{"cedula":1319652956,"apellidos":"Veliz Guanokisa","nombres":"Melanie Karen","semestre":"Segundo","paralelo":"B"},
{"cedula":1318523989,"apellidos":"Tumba Panta","nombres":"Byron Francisco","semestre":"Tercero","paralelo":"C"},
{"cedula":1311523698,"apellidos":"Quijije Choez","nombres":"Nathaly Madgalena","semestre":"Cuarto","paralelo":"A"}
]